-- Merging decision tree log ---
manifest
ADDED from F:\Works\iend\LearnNet Projects\Herzog\AndroidManifest.xml:2:1-174:12
	xmlns:android
		ADDED from F:\Works\iend\LearnNet Projects\Herzog\AndroidManifest.xml:2:11-69
	package
		ADDED from F:\Works\iend\LearnNet Projects\Herzog\AndroidManifest.xml:3:5-34
	android:versionName
		ADDED from F:\Works\iend\LearnNet Projects\Herzog\AndroidManifest.xml:5:5-30
		INJECTED from F:\Works\iend\LearnNet Projects\Herzog\AndroidManifest.xml
		INJECTED from F:\Works\iend\LearnNet Projects\Herzog\AndroidManifest.xml
	android:versionCode
		ADDED from F:\Works\iend\LearnNet Projects\Herzog\AndroidManifest.xml:4:5-28
		INJECTED from F:\Works\iend\LearnNet Projects\Herzog\AndroidManifest.xml
		INJECTED from F:\Works\iend\LearnNet Projects\Herzog\AndroidManifest.xml
uses-sdk
ADDED from F:\Works\iend\LearnNet Projects\Herzog\AndroidManifest.xml:7:5-9:41
MERGED from [com.google.android.gms:play-services-ads:8.1.0] F:\Works\iend\LearnNet Projects\Herzog\build\intermediates\exploded-aar\com.google.android.gms\play-services-ads\8.1.0\AndroidManifest.xml:23:5-42
MERGED from [com.google.android.gms:play-services-basement:8.1.0] F:\Works\iend\LearnNet Projects\Herzog\build\intermediates\exploded-aar\com.google.android.gms\play-services-basement\8.1.0\AndroidManifest.xml:18:5-42
MERGED from [com.android.support:support-v4:22.2.0] F:\Works\iend\LearnNet Projects\Herzog\build\intermediates\exploded-aar\com.android.support\support-v4\22.2.0\AndroidManifest.xml:20:5-43
MERGED from [com.google.android.gms:play-services-appindexing:8.1.0] F:\Works\iend\LearnNet Projects\Herzog\build\intermediates\exploded-aar\com.google.android.gms\play-services-appindexing\8.1.0\AndroidManifest.xml:18:5-42
MERGED from [com.google.android.gms:play-services-basement:8.1.0] F:\Works\iend\LearnNet Projects\Herzog\build\intermediates\exploded-aar\com.google.android.gms\play-services-basement\8.1.0\AndroidManifest.xml:18:5-42
MERGED from [com.android.support:support-v4:22.2.0] F:\Works\iend\LearnNet Projects\Herzog\build\intermediates\exploded-aar\com.android.support\support-v4\22.2.0\AndroidManifest.xml:20:5-43
MERGED from [com.google.android.gms:play-services-analytics:8.1.0] F:\Works\iend\LearnNet Projects\Herzog\build\intermediates\exploded-aar\com.google.android.gms\play-services-analytics\8.1.0\AndroidManifest.xml:18:5-42
MERGED from [com.google.android.gms:play-services-basement:8.1.0] F:\Works\iend\LearnNet Projects\Herzog\build\intermediates\exploded-aar\com.google.android.gms\play-services-basement\8.1.0\AndroidManifest.xml:18:5-42
MERGED from [com.android.support:support-v4:22.2.0] F:\Works\iend\LearnNet Projects\Herzog\build\intermediates\exploded-aar\com.android.support\support-v4\22.2.0\AndroidManifest.xml:20:5-43
MERGED from [com.google.android.gms:play-services-ads:8.1.0] F:\Works\iend\LearnNet Projects\Herzog\build\intermediates\exploded-aar\com.google.android.gms\play-services-ads\8.1.0\AndroidManifest.xml:23:5-42
MERGED from [com.google.android.gms:play-services-basement:8.1.0] F:\Works\iend\LearnNet Projects\Herzog\build\intermediates\exploded-aar\com.google.android.gms\play-services-basement\8.1.0\AndroidManifest.xml:18:5-42
MERGED from [com.android.support:support-v4:22.2.0] F:\Works\iend\LearnNet Projects\Herzog\build\intermediates\exploded-aar\com.android.support\support-v4\22.2.0\AndroidManifest.xml:20:5-43
MERGED from [com.google.android.gms:play-services-appindexing:8.1.0] F:\Works\iend\LearnNet Projects\Herzog\build\intermediates\exploded-aar\com.google.android.gms\play-services-appindexing\8.1.0\AndroidManifest.xml:18:5-42
MERGED from [com.google.android.gms:play-services-basement:8.1.0] F:\Works\iend\LearnNet Projects\Herzog\build\intermediates\exploded-aar\com.google.android.gms\play-services-basement\8.1.0\AndroidManifest.xml:18:5-42
MERGED from [com.android.support:support-v4:22.2.0] F:\Works\iend\LearnNet Projects\Herzog\build\intermediates\exploded-aar\com.android.support\support-v4\22.2.0\AndroidManifest.xml:20:5-43
MERGED from [com.android.support:appcompat-v7:19.0.1] F:\Works\iend\LearnNet Projects\Herzog\build\intermediates\exploded-aar\com.android.support\appcompat-v7\19.0.1\AndroidManifest.xml:18:5-42
MERGED from [com.android.support:support-v4:22.2.0] F:\Works\iend\LearnNet Projects\Herzog\build\intermediates\exploded-aar\com.android.support\support-v4\22.2.0\AndroidManifest.xml:20:5-43
	android:targetSdkVersion
		ADDED from F:\Works\iend\LearnNet Projects\Herzog\AndroidManifest.xml:9:9-38
	android:minSdkVersion
		ADDED from F:\Works\iend\LearnNet Projects\Herzog\AndroidManifest.xml:8:9-34
uses-permission#android.permission.ACCESS_NETWORK_STATE
ADDED from F:\Works\iend\LearnNet Projects\Herzog\AndroidManifest.xml:11:5-78
MERGED from [com.google.android.gms:play-services-ads:8.1.0] F:\Works\iend\LearnNet Projects\Herzog\build\intermediates\exploded-aar\com.google.android.gms\play-services-ads\8.1.0\AndroidManifest.xml:21:5-78
MERGED from [com.google.android.gms:play-services-analytics:8.1.0] F:\Works\iend\LearnNet Projects\Herzog\build\intermediates\exploded-aar\com.google.android.gms\play-services-analytics\8.1.0\AndroidManifest.xml:22:5-79
MERGED from [com.google.android.gms:play-services-ads:8.1.0] F:\Works\iend\LearnNet Projects\Herzog\build\intermediates\exploded-aar\com.google.android.gms\play-services-ads\8.1.0\AndroidManifest.xml:21:5-78
	android:name
		ADDED from F:\Works\iend\LearnNet Projects\Herzog\AndroidManifest.xml:11:22-76
uses-permission#android.permission.ACCESS_WIFI_STATE
ADDED from F:\Works\iend\LearnNet Projects\Herzog\AndroidManifest.xml:12:5-75
	android:name
		ADDED from F:\Works\iend\LearnNet Projects\Herzog\AndroidManifest.xml:12:22-73
uses-permission#android.permission.INTERNET
ADDED from F:\Works\iend\LearnNet Projects\Herzog\AndroidManifest.xml:13:5-66
MERGED from [com.google.android.gms:play-services-ads:8.1.0] F:\Works\iend\LearnNet Projects\Herzog\build\intermediates\exploded-aar\com.google.android.gms\play-services-ads\8.1.0\AndroidManifest.xml:20:5-66
MERGED from [com.google.android.gms:play-services-analytics:8.1.0] F:\Works\iend\LearnNet Projects\Herzog\build\intermediates\exploded-aar\com.google.android.gms\play-services-analytics\8.1.0\AndroidManifest.xml:21:5-67
MERGED from [com.google.android.gms:play-services-ads:8.1.0] F:\Works\iend\LearnNet Projects\Herzog\build\intermediates\exploded-aar\com.google.android.gms\play-services-ads\8.1.0\AndroidManifest.xml:20:5-66
	android:name
		ADDED from F:\Works\iend\LearnNet Projects\Herzog\AndroidManifest.xml:13:22-64
uses-permission#android.permission.WRITE_EXTERNAL_STORAGE
ADDED from F:\Works\iend\LearnNet Projects\Herzog\AndroidManifest.xml:15:5-80
	android:name
		ADDED from F:\Works\iend\LearnNet Projects\Herzog\AndroidManifest.xml:15:22-78
permission#com.learnnet.herzog.permission.C2D_MESSAGE
ADDED from F:\Works\iend\LearnNet Projects\Herzog\AndroidManifest.xml:18:5-20:43
	android:protectionLevel
		ADDED from F:\Works\iend\LearnNet Projects\Herzog\AndroidManifest.xml:20:5-40
	android:name
		ADDED from F:\Works\iend\LearnNet Projects\Herzog\AndroidManifest.xml:19:5-62
uses-permission#android.permission.VIBRATE
ADDED from F:\Works\iend\LearnNet Projects\Herzog\AndroidManifest.xml:21:2-63
	android:name
		ADDED from F:\Works\iend\LearnNet Projects\Herzog\AndroidManifest.xml:21:19-60
uses-permission#android.permission.READ_PHONE_STATE
ADDED from F:\Works\iend\LearnNet Projects\Herzog\AndroidManifest.xml:22:2-72
	android:name
		ADDED from F:\Works\iend\LearnNet Projects\Herzog\AndroidManifest.xml:22:19-69
uses-permission#android.permission.GET_ACCOUNTS
ADDED from F:\Works\iend\LearnNet Projects\Herzog\AndroidManifest.xml:23:2-68
	android:name
		ADDED from F:\Works\iend\LearnNet Projects\Herzog\AndroidManifest.xml:23:19-65
uses-permission#android.permission.WAKE_LOCK
ADDED from F:\Works\iend\LearnNet Projects\Herzog\AndroidManifest.xml:24:2-65
	android:name
		ADDED from F:\Works\iend\LearnNet Projects\Herzog\AndroidManifest.xml:24:19-62
uses-permission#com.google.android.c2dm.permission.RECEIVE
ADDED from F:\Works\iend\LearnNet Projects\Herzog\AndroidManifest.xml:25:2-79
	android:name
		ADDED from F:\Works\iend\LearnNet Projects\Herzog\AndroidManifest.xml:25:19-76
uses-permission#com.learnnet.herzog.permission.C2D_MESSAGE
ADDED from F:\Works\iend\LearnNet Projects\Herzog\AndroidManifest.xml:26:2-79
	android:name
		ADDED from F:\Works\iend\LearnNet Projects\Herzog\AndroidManifest.xml:26:19-76
application
ADDED from F:\Works\iend\LearnNet Projects\Herzog\AndroidManifest.xml:30:5-172:19
MERGED from [com.google.android.gms:play-services-ads:8.1.0] F:\Works\iend\LearnNet Projects\Herzog\build\intermediates\exploded-aar\com.google.android.gms\play-services-ads\8.1.0\AndroidManifest.xml:24:5-32:19
MERGED from [com.google.android.gms:play-services-basement:8.1.0] F:\Works\iend\LearnNet Projects\Herzog\build\intermediates\exploded-aar\com.google.android.gms\play-services-basement\8.1.0\AndroidManifest.xml:20:5-24:19
MERGED from [com.android.support:support-v4:22.2.0] F:\Works\iend\LearnNet Projects\Herzog\build\intermediates\exploded-aar\com.android.support\support-v4\22.2.0\AndroidManifest.xml:22:5-20
MERGED from [com.google.android.gms:play-services-appindexing:8.1.0] F:\Works\iend\LearnNet Projects\Herzog\build\intermediates\exploded-aar\com.google.android.gms\play-services-appindexing\8.1.0\AndroidManifest.xml:19:5-20
MERGED from [com.google.android.gms:play-services-basement:8.1.0] F:\Works\iend\LearnNet Projects\Herzog\build\intermediates\exploded-aar\com.google.android.gms\play-services-basement\8.1.0\AndroidManifest.xml:20:5-24:19
MERGED from [com.android.support:support-v4:22.2.0] F:\Works\iend\LearnNet Projects\Herzog\build\intermediates\exploded-aar\com.android.support\support-v4\22.2.0\AndroidManifest.xml:22:5-20
MERGED from [com.google.android.gms:play-services-analytics:8.1.0] F:\Works\iend\LearnNet Projects\Herzog\build\intermediates\exploded-aar\com.google.android.gms\play-services-analytics\8.1.0\AndroidManifest.xml:24:5-20
MERGED from [com.google.android.gms:play-services-basement:8.1.0] F:\Works\iend\LearnNet Projects\Herzog\build\intermediates\exploded-aar\com.google.android.gms\play-services-basement\8.1.0\AndroidManifest.xml:20:5-24:19
MERGED from [com.android.support:support-v4:22.2.0] F:\Works\iend\LearnNet Projects\Herzog\build\intermediates\exploded-aar\com.android.support\support-v4\22.2.0\AndroidManifest.xml:22:5-20
MERGED from [com.google.android.gms:play-services-ads:8.1.0] F:\Works\iend\LearnNet Projects\Herzog\build\intermediates\exploded-aar\com.google.android.gms\play-services-ads\8.1.0\AndroidManifest.xml:24:5-32:19
MERGED from [com.google.android.gms:play-services-basement:8.1.0] F:\Works\iend\LearnNet Projects\Herzog\build\intermediates\exploded-aar\com.google.android.gms\play-services-basement\8.1.0\AndroidManifest.xml:20:5-24:19
MERGED from [com.android.support:support-v4:22.2.0] F:\Works\iend\LearnNet Projects\Herzog\build\intermediates\exploded-aar\com.android.support\support-v4\22.2.0\AndroidManifest.xml:22:5-20
MERGED from [com.google.android.gms:play-services-appindexing:8.1.0] F:\Works\iend\LearnNet Projects\Herzog\build\intermediates\exploded-aar\com.google.android.gms\play-services-appindexing\8.1.0\AndroidManifest.xml:19:5-20
MERGED from [com.google.android.gms:play-services-basement:8.1.0] F:\Works\iend\LearnNet Projects\Herzog\build\intermediates\exploded-aar\com.google.android.gms\play-services-basement\8.1.0\AndroidManifest.xml:20:5-24:19
MERGED from [com.android.support:support-v4:22.2.0] F:\Works\iend\LearnNet Projects\Herzog\build\intermediates\exploded-aar\com.android.support\support-v4\22.2.0\AndroidManifest.xml:22:5-20
MERGED from [com.android.support:appcompat-v7:19.0.1] F:\Works\iend\LearnNet Projects\Herzog\build\intermediates\exploded-aar\com.android.support\appcompat-v7\19.0.1\AndroidManifest.xml:19:5-20
MERGED from [com.android.support:support-v4:22.2.0] F:\Works\iend\LearnNet Projects\Herzog\build\intermediates\exploded-aar\com.android.support\support-v4\22.2.0\AndroidManifest.xml:22:5-20
	android:label
		ADDED from F:\Works\iend\LearnNet Projects\Herzog\AndroidManifest.xml:34:9-41
	android:allowBackup
		ADDED from F:\Works\iend\LearnNet Projects\Herzog\AndroidManifest.xml:32:9-35
	android:icon
		ADDED from F:\Works\iend\LearnNet Projects\Herzog\AndroidManifest.xml:33:9-45
	android:theme
		ADDED from F:\Works\iend\LearnNet Projects\Herzog\AndroidManifest.xml:36:9-67
	android:largeHeap
		ADDED from F:\Works\iend\LearnNet Projects\Herzog\AndroidManifest.xml:35:9-33
	android:name
		ADDED from F:\Works\iend\LearnNet Projects\Herzog\AndroidManifest.xml:31:9-57
receiver#com.learnnet.herzog.MyApplication$ConnectionChangeReceiver
ADDED from F:\Works\iend\LearnNet Projects\Herzog\AndroidManifest.xml:39:9-45:20
	android:label
		ADDED from F:\Works\iend\LearnNet Projects\Herzog\AndroidManifest.xml:41:13-46
	android:name
		ADDED from F:\Works\iend\LearnNet Projects\Herzog\AndroidManifest.xml:40:13-86
intent-filter#android.net.conn.CONNECTIVITY_CHANGE
ADDED from F:\Works\iend\LearnNet Projects\Herzog\AndroidManifest.xml:42:13-44:29
action#android.net.conn.CONNECTIVITY_CHANGE
ADDED from F:\Works\iend\LearnNet Projects\Herzog\AndroidManifest.xml:43:17-79
	android:name
		ADDED from F:\Works\iend\LearnNet Projects\Herzog\AndroidManifest.xml:43:25-76
meta-data#com.google.android.gms.analytics.globalConfigResource
ADDED from F:\Works\iend\LearnNet Projects\Herzog\AndroidManifest.xml:48:3-49:45
	android:resource
		ADDED from F:\Works\iend\LearnNet Projects\Herzog\AndroidManifest.xml:49:4-42
	android:name
		ADDED from F:\Works\iend\LearnNet Projects\Herzog\AndroidManifest.xml:48:14-82
meta-data#com.google.android.gms.version
ADDED from F:\Works\iend\LearnNet Projects\Herzog\AndroidManifest.xml:52:9-53:69
MERGED from [com.google.android.gms:play-services-basement:8.1.0] F:\Works\iend\LearnNet Projects\Herzog\build\intermediates\exploded-aar\com.google.android.gms\play-services-basement\8.1.0\AndroidManifest.xml:21:9-23:69
MERGED from [com.google.android.gms:play-services-basement:8.1.0] F:\Works\iend\LearnNet Projects\Herzog\build\intermediates\exploded-aar\com.google.android.gms\play-services-basement\8.1.0\AndroidManifest.xml:21:9-23:69
MERGED from [com.google.android.gms:play-services-basement:8.1.0] F:\Works\iend\LearnNet Projects\Herzog\build\intermediates\exploded-aar\com.google.android.gms\play-services-basement\8.1.0\AndroidManifest.xml:21:9-23:69
MERGED from [com.google.android.gms:play-services-basement:8.1.0] F:\Works\iend\LearnNet Projects\Herzog\build\intermediates\exploded-aar\com.google.android.gms\play-services-basement\8.1.0\AndroidManifest.xml:21:9-23:69
MERGED from [com.google.android.gms:play-services-basement:8.1.0] F:\Works\iend\LearnNet Projects\Herzog\build\intermediates\exploded-aar\com.google.android.gms\play-services-basement\8.1.0\AndroidManifest.xml:21:9-23:69
	android:name
		ADDED from F:\Works\iend\LearnNet Projects\Herzog\AndroidManifest.xml:52:20-65
	android:value
		ADDED from F:\Works\iend\LearnNet Projects\Herzog\AndroidManifest.xml:53:13-66
receiver#com.groboot.pushapps.GCMBroadcastReceiver
ADDED from F:\Works\iend\LearnNet Projects\Herzog\AndroidManifest.xml:56:9-65:20
	android:permission
		ADDED from F:\Works\iend\LearnNet Projects\Herzog\AndroidManifest.xml:58:13-73
	android:name
		ADDED from F:\Works\iend\LearnNet Projects\Herzog\AndroidManifest.xml:57:13-69
intent-filter#com.google.android.c2dm.intent.RECEIVE+com.google.android.c2dm.intent.REGISTRATION+com.learnnet.herzog
ADDED from F:\Works\iend\LearnNet Projects\Herzog\AndroidManifest.xml:59:13-64:29
action#com.google.android.c2dm.intent.RECEIVE
ADDED from F:\Works\iend\LearnNet Projects\Herzog\AndroidManifest.xml:60:17-81
	android:name
		ADDED from F:\Works\iend\LearnNet Projects\Herzog\AndroidManifest.xml:60:25-78
action#com.google.android.c2dm.intent.REGISTRATION
ADDED from F:\Works\iend\LearnNet Projects\Herzog\AndroidManifest.xml:61:17-86
	android:name
		ADDED from F:\Works\iend\LearnNet Projects\Herzog\AndroidManifest.xml:61:25-83
category#com.learnnet.herzog
ADDED from F:\Works\iend\LearnNet Projects\Herzog\AndroidManifest.xml:63:17-64
	android:name
		ADDED from F:\Works\iend\LearnNet Projects\Herzog\AndroidManifest.xml:63:27-61
service#com.groboot.pushapps.GCMBaseIntentServiceImpl
ADDED from F:\Works\iend\LearnNet Projects\Herzog\AndroidManifest.xml:67:9-81
	android:name
		ADDED from F:\Works\iend\LearnNet Projects\Herzog\AndroidManifest.xml:67:18-78
activity#com.groboot.pushapps.PushActivity
ADDED from F:\Works\iend\LearnNet Projects\Herzog\AndroidManifest.xml:69:9-71:66
	android:configChanges
		ADDED from F:\Works\iend\LearnNet Projects\Herzog\AndroidManifest.xml:71:13-63
	android:name
		ADDED from F:\Works\iend\LearnNet Projects\Herzog\AndroidManifest.xml:70:13-61
receiver#com.learnnet.herzog.IntentReceiver
ADDED from F:\Works\iend\LearnNet Projects\Herzog\AndroidManifest.xml:75:3-65
	android:name
		ADDED from F:\Works\iend\LearnNet Projects\Herzog\AndroidManifest.xml:75:13-62
activity#com.learnnet.herzog.activity.Splash
ADDED from F:\Works\iend\LearnNet Projects\Herzog\AndroidManifest.xml:77:9-86:20
	android:screenOrientation
		ADDED from F:\Works\iend\LearnNet Projects\Herzog\AndroidManifest.xml:80:13-49
	android:label
		ADDED from F:\Works\iend\LearnNet Projects\Herzog\AndroidManifest.xml:79:13-45
	android:name
		ADDED from F:\Works\iend\LearnNet Projects\Herzog\AndroidManifest.xml:78:13-63
intent-filter#android.intent.action.MAIN+android.intent.category.LAUNCHER
ADDED from F:\Works\iend\LearnNet Projects\Herzog\AndroidManifest.xml:81:13-85:29
action#android.intent.action.MAIN
ADDED from F:\Works\iend\LearnNet Projects\Herzog\AndroidManifest.xml:82:17-69
	android:name
		ADDED from F:\Works\iend\LearnNet Projects\Herzog\AndroidManifest.xml:82:25-66
category#android.intent.category.LAUNCHER
ADDED from F:\Works\iend\LearnNet Projects\Herzog\AndroidManifest.xml:84:17-77
	android:name
		ADDED from F:\Works\iend\LearnNet Projects\Herzog\AndroidManifest.xml:84:27-74
activity#com.learnnet.herzog.activity.Login
ADDED from F:\Works\iend\LearnNet Projects\Herzog\AndroidManifest.xml:88:9-91:20
	android:screenOrientation
		ADDED from F:\Works\iend\LearnNet Projects\Herzog\AndroidManifest.xml:90:7-43
	android:name
		ADDED from F:\Works\iend\LearnNet Projects\Herzog\AndroidManifest.xml:89:7-56
activity#com.learnnet.herzog.activity.MainMenu
ADDED from F:\Works\iend\LearnNet Projects\Herzog\AndroidManifest.xml:93:9-97:20
	android:screenOrientation
		ADDED from F:\Works\iend\LearnNet Projects\Herzog\AndroidManifest.xml:95:7-43
	android:theme
		ADDED from F:\Works\iend\LearnNet Projects\Herzog\AndroidManifest.xml:96:13-57
	android:name
		ADDED from F:\Works\iend\LearnNet Projects\Herzog\AndroidManifest.xml:94:7-59
activity#com.learnnet.herzog.activity.Messages
ADDED from F:\Works\iend\LearnNet Projects\Herzog\AndroidManifest.xml:99:9-103:20
	android:screenOrientation
		ADDED from F:\Works\iend\LearnNet Projects\Herzog\AndroidManifest.xml:101:7-43
	android:theme
		ADDED from F:\Works\iend\LearnNet Projects\Herzog\AndroidManifest.xml:102:13-57
	android:name
		ADDED from F:\Works\iend\LearnNet Projects\Herzog\AndroidManifest.xml:100:7-59
activity#com.learnnet.herzog.activity.Grades
ADDED from F:\Works\iend\LearnNet Projects\Herzog\AndroidManifest.xml:105:9-109:20
	android:screenOrientation
		ADDED from F:\Works\iend\LearnNet Projects\Herzog\AndroidManifest.xml:107:7-43
	android:theme
		ADDED from F:\Works\iend\LearnNet Projects\Herzog\AndroidManifest.xml:108:13-57
	android:name
		ADDED from F:\Works\iend\LearnNet Projects\Herzog\AndroidManifest.xml:106:7-57
activity#com.learnnet.herzog.activity.Exams
ADDED from F:\Works\iend\LearnNet Projects\Herzog\AndroidManifest.xml:111:9-115:20
	android:screenOrientation
		ADDED from F:\Works\iend\LearnNet Projects\Herzog\AndroidManifest.xml:113:7-43
	android:theme
		ADDED from F:\Works\iend\LearnNet Projects\Herzog\AndroidManifest.xml:114:13-57
	android:name
		ADDED from F:\Works\iend\LearnNet Projects\Herzog\AndroidManifest.xml:112:7-56
activity#com.learnnet.herzog.activity.Schedule
ADDED from F:\Works\iend\LearnNet Projects\Herzog\AndroidManifest.xml:117:9-121:20
	android:screenOrientation
		ADDED from F:\Works\iend\LearnNet Projects\Herzog\AndroidManifest.xml:119:7-43
	android:theme
		ADDED from F:\Works\iend\LearnNet Projects\Herzog\AndroidManifest.xml:120:13-57
	android:name
		ADDED from F:\Works\iend\LearnNet Projects\Herzog\AndroidManifest.xml:118:7-59
activity#com.learnnet.herzog.activity.Survey
ADDED from F:\Works\iend\LearnNet Projects\Herzog\AndroidManifest.xml:123:9-127:20
	android:screenOrientation
		ADDED from F:\Works\iend\LearnNet Projects\Herzog\AndroidManifest.xml:125:7-43
	android:theme
		ADDED from F:\Works\iend\LearnNet Projects\Herzog\AndroidManifest.xml:126:13-57
	android:name
		ADDED from F:\Works\iend\LearnNet Projects\Herzog\AndroidManifest.xml:124:7-57
activity#com.learnnet.herzog.activity.TeacherSchedule
ADDED from F:\Works\iend\LearnNet Projects\Herzog\AndroidManifest.xml:129:9-133:20
	android:screenOrientation
		ADDED from F:\Works\iend\LearnNet Projects\Herzog\AndroidManifest.xml:131:7-43
	android:theme
		ADDED from F:\Works\iend\LearnNet Projects\Herzog\AndroidManifest.xml:132:13-57
	android:name
		ADDED from F:\Works\iend\LearnNet Projects\Herzog\AndroidManifest.xml:130:7-66
activity#com.learnnet.herzog.activity.TeacherExams
ADDED from F:\Works\iend\LearnNet Projects\Herzog\AndroidManifest.xml:135:9-139:20
	android:screenOrientation
		ADDED from F:\Works\iend\LearnNet Projects\Herzog\AndroidManifest.xml:137:7-43
	android:theme
		ADDED from F:\Works\iend\LearnNet Projects\Herzog\AndroidManifest.xml:138:13-57
	android:name
		ADDED from F:\Works\iend\LearnNet Projects\Herzog\AndroidManifest.xml:136:7-63
activity#com.learnnet.herzog.activity.Requests
ADDED from F:\Works\iend\LearnNet Projects\Herzog\AndroidManifest.xml:141:9-145:20
	android:screenOrientation
		ADDED from F:\Works\iend\LearnNet Projects\Herzog\AndroidManifest.xml:143:7-43
	android:theme
		ADDED from F:\Works\iend\LearnNet Projects\Herzog\AndroidManifest.xml:144:13-57
	android:name
		ADDED from F:\Works\iend\LearnNet Projects\Herzog\AndroidManifest.xml:142:7-59
activity#com.learnnet.herzog.activity.OnlineEducation
ADDED from F:\Works\iend\LearnNet Projects\Herzog\AndroidManifest.xml:147:9-151:20
	android:screenOrientation
		ADDED from F:\Works\iend\LearnNet Projects\Herzog\AndroidManifest.xml:149:7-43
	android:theme
		ADDED from F:\Works\iend\LearnNet Projects\Herzog\AndroidManifest.xml:150:13-71
	android:name
		ADDED from F:\Works\iend\LearnNet Projects\Herzog\AndroidManifest.xml:148:7-66
activity#com.learnnet.herzog.richPush.InboxActivity
ADDED from F:\Works\iend\LearnNet Projects\Herzog\AndroidManifest.xml:153:9-157:20
	android:screenOrientation
		ADDED from F:\Works\iend\LearnNet Projects\Herzog\AndroidManifest.xml:155:13-49
	android:theme
		ADDED from F:\Works\iend\LearnNet Projects\Herzog\AndroidManifest.xml:156:13-57
	android:name
		ADDED from F:\Works\iend\LearnNet Projects\Herzog\AndroidManifest.xml:154:13-70
activity#com.learnnet.herzog.PushAlertActivity
ADDED from F:\Works\iend\LearnNet Projects\Herzog\AndroidManifest.xml:159:9-164:20
	android:windowSoftInputMode
		ADDED from F:\Works\iend\LearnNet Projects\Herzog\AndroidManifest.xml:163:13-52
	android:screenOrientation
		ADDED from F:\Works\iend\LearnNet Projects\Herzog\AndroidManifest.xml:161:13-49
	android:theme
		ADDED from F:\Works\iend\LearnNet Projects\Herzog\AndroidManifest.xml:162:13-72
	android:name
		ADDED from F:\Works\iend\LearnNet Projects\Herzog\AndroidManifest.xml:160:13-65
activity#com.learnnet.herzog.richPush.MessageActivity
ADDED from F:\Works\iend\LearnNet Projects\Herzog\AndroidManifest.xml:166:9-170:20
	android:screenOrientation
		ADDED from F:\Works\iend\LearnNet Projects\Herzog\AndroidManifest.xml:168:13-49
	android:theme
		ADDED from F:\Works\iend\LearnNet Projects\Herzog\AndroidManifest.xml:169:13-57
	android:name
		ADDED from F:\Works\iend\LearnNet Projects\Herzog\AndroidManifest.xml:167:13-72
activity#com.google.android.gms.ads.AdActivity
ADDED from [com.google.android.gms:play-services-ads:8.1.0] F:\Works\iend\LearnNet Projects\Herzog\build\intermediates\exploded-aar\com.google.android.gms\play-services-ads\8.1.0\AndroidManifest.xml:26:9-29:64
MERGED from [com.google.android.gms:play-services-ads:8.1.0] F:\Works\iend\LearnNet Projects\Herzog\build\intermediates\exploded-aar\com.google.android.gms\play-services-ads\8.1.0\AndroidManifest.xml:26:9-29:64
	android:configChanges
		ADDED from [com.google.android.gms:play-services-ads:8.1.0] F:\Works\iend\LearnNet Projects\Herzog\build\intermediates\exploded-aar\com.google.android.gms\play-services-ads\8.1.0\AndroidManifest.xml:28:13-122
	android:theme
		ADDED from [com.google.android.gms:play-services-ads:8.1.0] F:\Works\iend\LearnNet Projects\Herzog\build\intermediates\exploded-aar\com.google.android.gms\play-services-ads\8.1.0\AndroidManifest.xml:29:13-61
	android:name
		ADDED from [com.google.android.gms:play-services-ads:8.1.0] F:\Works\iend\LearnNet Projects\Herzog\build\intermediates\exploded-aar\com.google.android.gms\play-services-ads\8.1.0\AndroidManifest.xml:27:13-65
activity#com.google.android.gms.ads.purchase.InAppPurchaseActivity
ADDED from [com.google.android.gms:play-services-ads:8.1.0] F:\Works\iend\LearnNet Projects\Herzog\build\intermediates\exploded-aar\com.google.android.gms\play-services-ads\8.1.0\AndroidManifest.xml:30:9-31:52
MERGED from [com.google.android.gms:play-services-ads:8.1.0] F:\Works\iend\LearnNet Projects\Herzog\build\intermediates\exploded-aar\com.google.android.gms\play-services-ads\8.1.0\AndroidManifest.xml:30:9-31:52
	android:theme
		ADDED from [com.google.android.gms:play-services-ads:8.1.0] F:\Works\iend\LearnNet Projects\Herzog\build\intermediates\exploded-aar\com.google.android.gms\play-services-ads\8.1.0\AndroidManifest.xml:31:13-50
	android:name
		ADDED from [com.google.android.gms:play-services-ads:8.1.0] F:\Works\iend\LearnNet Projects\Herzog\build\intermediates\exploded-aar\com.google.android.gms\play-services-ads\8.1.0\AndroidManifest.xml:30:19-91
